Modelo predictivo de desnutrición aguda a partir de factores medioambientales
…
Muestra de hiperparámetros probados

params_rf_ndvi <- rf_tuned %>%
  tune::show_best(metric = "f_meas") %>%
  dplyr::slice(1:20) %>%
  knitr::kable() %>%
  kable_styling("striped")

models_results<- collect_metrics(rf_tuned)

2014 para 2015

## # A tibble: 30 x 9
##     mtry trees min_n .metric  .estimator  mean     n std_err .config
##    <dbl> <dbl> <dbl> <chr>    <chr>      <dbl> <dbl>   <dbl> <chr>  
##  1     7  1765    28 accuracy binary     0.822     3 0.00180 Model01
##  2     7  1765    28 f_meas   binary     0.894     3 0.00129 Model01
##  3     7   587    26 accuracy binary     0.823     3 0.00223 Model02
##  4     7   587    26 f_meas   binary     0.894     3 0.00157 Model02
##  5    12  1384    10 accuracy binary     0.824     3 0.00132 Model03
##  6    12  1384    10 f_meas   binary     0.895     3 0.00121 Model03
##  7     5   757     5 accuracy binary     0.824     3 0.00139 Model04
##  8     5   757     5 f_meas   binary     0.895     3 0.00127 Model04
##  9     1   930     8 accuracy binary     0.825     3 0.00139 Model05
## 10     1   930     8 f_meas   binary     0.895     3 0.00118 Model05
## # i 20 more rows

2014-2015 para 2016

## # A tibble: 30 x 9
##     mtry trees min_n .metric  .estimator  mean     n  std_err .config
##    <dbl> <dbl> <dbl> <chr>    <chr>      <dbl> <dbl>    <dbl> <chr>  
##  1    10  1004    23 accuracy binary     0.808     3 0.000427 Model01
##  2    10  1004    23 f_meas   binary     0.887     3 0.000237 Model01
##  3    14  1371    10 accuracy binary     0.807     3 0.000654 Model02
##  4    14  1371    10 f_meas   binary     0.887     3 0.000379 Model02
##  5    12  1784     7 accuracy binary     0.808     3 0.000212 Model03
##  6    12  1784     7 f_meas   binary     0.887     3 0.000113 Model03
##  7     3  1353    35 accuracy binary     0.808     3 0.000486 Model04
##  8     3  1353    35 f_meas   binary     0.888     3 0.000436 Model04
##  9    12  1721    10 accuracy binary     0.808     3 0.000417 Model05
## 10    12  1721    10 f_meas   binary     0.887     3 0.000237 Model05
## # i 20 more rows

2014-2016 para 2017

## # A tibble: 30 x 9
##     mtry trees min_n .metric  .estimator  mean     n  std_err .config
##    <dbl> <dbl> <dbl> <chr>    <chr>      <dbl> <dbl>    <dbl> <chr>  
##  1    12   383    31 accuracy binary     0.817     3 0.00129  Model01
##  2    12   383    31 f_meas   binary     0.892     3 0.000968 Model01
##  3     1   621    25 accuracy binary     0.817     3 0.00174  Model02
##  4     1   621    25 f_meas   binary     0.893     3 0.00121  Model02
##  5    15  1517     2 accuracy binary     0.817     3 0.000960 Model03
##  6    15  1517     2 f_meas   binary     0.892     3 0.000693 Model03
##  7     8  1437    21 accuracy binary     0.818     3 0.000973 Model04
##  8     8  1437    21 f_meas   binary     0.892     3 0.000699 Model04
##  9    11  1520     6 accuracy binary     0.817     3 0.000638 Model05
## 10    11  1520     6 f_meas   binary     0.892     3 0.000521 Model05
## # i 20 more rows

2014-2017 para 2018

## # A tibble: 30 x 9
##     mtry trees min_n .metric  .estimator  mean     n  std_err .config
##    <dbl> <dbl> <dbl> <chr>    <chr>      <dbl> <dbl>    <dbl> <chr>  
##  1     5   670    15 accuracy binary     0.817     3 0.00166  Model01
##  2     5   670    15 f_meas   binary     0.892     3 0.000971 Model01
##  3     5   413    21 accuracy binary     0.818     3 0.00173  Model02
##  4     5   413    21 f_meas   binary     0.892     3 0.00101  Model02
##  5     6    24    30 accuracy binary     0.816     3 0.00111  Model03
##  6     6    24    30 f_meas   binary     0.892     3 0.000634 Model03
##  7     7  1206     6 accuracy binary     0.818     3 0.00184  Model04
##  8     7  1206     6 f_meas   binary     0.892     3 0.00107  Model04
##  9    15  1109    40 accuracy binary     0.817     3 0.000939 Model05
## 10    15  1109    40 f_meas   binary     0.892     3 0.000573 Model05
## # i 20 more rows

2014-2018 para 2019

## # A tibble: 30 x 9
##     mtry trees min_n .metric  .estimator  mean     n  std_err .config
##    <dbl> <dbl> <dbl> <chr>    <chr>      <dbl> <dbl>    <dbl> <chr>  
##  1    15  1597     4 accuracy binary     0.822     3 0.000944 Model01
##  2    15  1597     4 f_meas   binary     0.894     3 0.000633 Model01
##  3    13  1199    20 accuracy binary     0.823     3 0.000826 Model02
##  4    13  1199    20 f_meas   binary     0.894     3 0.000585 Model02
##  5    13   593    24 accuracy binary     0.822     3 0.00102  Model03
##  6    13   593    24 f_meas   binary     0.894     3 0.000744 Model03
##  7     8  1127    19 accuracy binary     0.822     3 0.000988 Model04
##  8     8  1127    19 f_meas   binary     0.894     3 0.000663 Model04
##  9    13   838    40 accuracy binary     0.821     3 0.000716 Model05
## 10    13   838    40 f_meas   binary     0.894     3 0.000453 Model05
## # i 20 more rows
…
